(footprint "CC0_logo" (version 20221018) (generator pcbnew)
  (layer "F.Cu")
  (attr through_hole exclude_from_bom)
  (fp_text reference "G***" (at 0 0) (layer "F.SilkS") hide
      (effects (font (size 1.524 1.524) (thickness 0.3)))
    (tstamp 3966f57c-3a57-4b59-854f-561b73c9b114)
  )
  (fp_text value "LOGO" (at 0.75 0) (layer "F.SilkS") hide
      (effects (font (size 1.524 1.524) (thickness 0.3)))
    (tstamp a1058f12-daa5-4f7d-a757-95078dfa698e)
  )
  (fp_poly
    (pts
      (xy -1.885462 -0.447357)
      (xy -1.80796 -0.416229)
      (xy -1.734173 -0.37)
      (xy -1.677964 -0.318156)
      (xy -1.661191 -0.293865)
      (xy -1.654405 -0.269539)
      (xy -1.668257 -0.247419)
      (xy -1.709064 -0.219701)
      (xy -1.731679 -0.206789)
      (xy -1.821809 -0.156415)
      (xy -1.888507 -0.214977)
      (xy -1.960737 -0.261481)
      (xy -2.032889 -0.270561)
      (xy -2.108372 -0.245153)
      (xy -2.162338 -0.200425)
      (xy -2.19441 -0.131222)
      (xy -2.205949 -0.03361)
      (xy -2.20416 0.031687)
      (xy -2.197588 0.10471)
      (xy -2.185977 0.152001)
      (xy -2.164231 0.186901)
      (xy -2.133179 0.217499)
      (xy -2.057933 0.264544)
      (xy -1.981404 0.272549)
      (xy -1.903904 0.241518)
      (xy -1.867775 0.213928)
      (xy -1.799883 0.154317)
      (xy -1.720557 0.194786)
      (xy -1.673096 0.222496)
      (xy -1.644755 0.245796)
      (xy -1.641231 0.252736)
      (xy -1.654834 0.274078)
      (xy -1.690081 0.311448)
      (xy -1.727998 0.346592)
      (xy -1.841914 0.423137)
      (xy -1.965441 0.462801)
      (xy -2.094244 0.464942)
      (xy -2.223988 0.428916)
      (xy -2.238695 0.422334)
      (xy -2.345027 0.354034)
      (xy -2.420464 0.262318)
      (xy -2.465242 0.146736)
      (xy -2.479597 0.006835)
      (xy -2.478269 -0.035499)
      (xy -2.468911 -0.125283)
      (xy -2.449251 -0.195064)
      (xy -2.413931 -0.263602)
      (xy -2.412411 -0.266102)
      (xy -2.33328 -0.360131)
      (xy -2.230981 -0.425953)
      (xy -2.111332 -0.461567)
      (xy -1.980151 -0.46497)
      (xy -1.885462 -0.447357)
    )

    (stroke (width 0.01) (type solid)) (fill solid) (layer "F.SilkS") (tstamp a33e9e57-4903-4969-a350-0e87c4be0c40))
  (fp_poly
    (pts
      (xy -1.01024 -0.448053)
      (xy -0.908378 -0.40803)
      (xy -0.825953 -0.349289)
      (xy -0.779557 -0.289126)
      (xy -0.775227 -0.265623)
      (xy -0.793686 -0.241428)
      (xy -0.840859 -0.209511)
      (xy -0.852388 -0.202677)
      (xy -0.906758 -0.17294)
      (xy -0.938765 -0.163009)
      (xy -0.958361 -0.17072)
      (xy -0.964922 -0.178217)
      (xy -1.013678 -0.224964)
      (xy -1.073913 -0.260146)
      (xy -1.12689 -0.273539)
      (xy -1.208245 -0.256466)
      (xy -1.27031 -0.207135)
      (xy -1.310986 -0.128382)
      (xy -1.328177 -0.023042)
      (xy -1.328616 -0.000962)
      (xy -1.315565 0.10452)
      (xy -1.279697 0.187197)
      (xy -1.225937 0.243996)
      (xy -1.159213 0.271845)
      (xy -1.084451 0.267673)
      (xy -1.006578 0.228406)
      (xy -0.986663 0.212275)
      (xy -0.916888 0.151013)
      (xy -0.839444 0.185935)
      (xy -0.79209 0.212301)
      (xy -0.764706 0.237249)
      (xy -0.762 0.244709)
      (xy -0.777365 0.276272)
      (xy -0.817095 0.319399)
      (xy -0.871639 0.366241)
      (xy -0.931448 0.408947)
      (xy -0.986973 0.43967)
      (xy -1.00907 0.447792)
      (xy -1.148419 0.468493)
      (xy -1.280352 0.450937)
      (xy -1.363723 0.418395)
      (xy -1.467214 0.346141)
      (xy -1.542881 0.248191)
      (xy -1.588536 0.128345)
      (xy -1.602154 0.004694)
      (xy -1.585124 -0.126514)
      (xy -1.536905 -0.245772)
      (xy -1.4618 -0.345922)
      (xy -1.364117 -0.419804)
      (xy -1.339475 -0.432072)
      (xy -1.235087 -0.462447)
      (xy -1.122242 -0.466983)
      (xy -1.01024 -0.448053)
    )

    (stroke (width 0.01) (type solid)) (fill solid) (layer "F.SilkS") (tstamp 614c1a86-75d4-4814-8792-a604f948c74e))
  (fp_poly
    (pts
      (xy 1.718811 -0.866259)
      (xy 1.783433 -0.858563)
      (xy 1.8415 -0.840803)
      (xy 1.900438 -0.814116)
      (xy 2.015396 -0.738004)
      (xy 2.107653 -0.63303)
      (xy 2.177998 -0.497849)
      (xy 2.227221 -0.331117)
      (xy 2.24543 -0.226536)
      (xy 2.261732 -0.072822)
      (xy 2.263518 0.063482)
      (xy 2.250516 0.201356)
      (xy 2.238221 0.277732)
      (xy 2.1934 0.451964)
      (xy 2.126711 0.598191)
      (xy 2.039491 0.714342)
      (xy 1.933076 0.798346)
      (xy 1.887208 0.821706)
      (xy 1.794059 0.850276)
      (xy 1.681724 0.866619)
      (xy 1.568671 0.868967)
      (xy 1.490717 0.859705)
      (xy 1.4154 0.839781)
      (xy 1.353805 0.811095)
      (xy 1.290906 0.765485)
      (xy 1.247215 0.727434)
      (xy 1.157059 0.622255)
      (xy 1.089193 0.48908)
      (xy 1.07861 0.451694)
      (xy 1.484923 0.451694)
      (xy 1.501634 0.498731)
      (xy 1.545315 0.530658)
      (xy 1.606292 0.545931)
      (xy 1.674889 0.543004)
      (xy 1.741429 0.520334)
      (xy 1.774755 0.497962)
      (xy 1.816901 0.448793)
      (xy 1.854205 0.382909)
      (xy 1.864849 0.356308)
      (xy 1.88411 0.277223)
      (xy 1.89875 0.173359)
      (xy 1.907803 0.058843)
      (xy 1.910303 -0.052198)
      (xy 1.905284 -0.145638)
      (xy 1.901108 -0.174111)
      (xy 1.884973 -0.260298)
      (xy 1.684948 0.083738)
      (xy 1.624344 0.189104)
      (xy 1.571119 0.283798)
      (xy 1.52824 0.362368)
      (xy 1.498669 0.41936)
      (xy 1.485371 0.449321)
      (xy 1.484923 0.451694)
      (xy 1.07861 0.451694)
      (xy 1.043164 0.326483)
      (xy 1.01852 0.133041)
      (xy 1.015195 0.034984)
      (xy 1.361854 0.034984)
      (xy 1.363815 0.095716)
      (xy 1.365833 0.141666)
      (xy 1.368582 0.174212)
      (xy 1.374422 0.190645)
      (xy 1.385712 0.188254)
      (xy 1.404811 0.16433)
      (xy 1.434079 0.116164)
      (xy 1.475876 0.041045)
      (xy 1.532562 -0.063737)
      (xy 1.581079 -0.153804)
      (xy 1.640141 -0.264381)
      (xy 1.682165 -0.346344)
      (xy 1.709345 -0.405094)
      (xy 1.723875 -0.446033)
      (xy 1.727947 -0.474566)
      (xy 1.723754 -0.496092)
      (xy 1.721855 -0.500611)
      (xy 1.68592 -0.536803)
      (xy 1.627827 -0.547355)
      (xy 1.555436 -0.531648)
      (xy 1.521317 -0.516383)
      (xy 1.464215 -0.465864)
      (xy 1.418724 -0.381603)
      (xy 1.385837 -0.267465)
      (xy 1.366549 -0.127314)
      (xy 1.361854 0.034984)
      (xy 1.015195 0.034984)
      (xy 1.013762 -0.007269)
      (xy 1.024688 -0.220322)
      (xy 1.059279 -0.402862)
      (xy 1.117786 -0.555661)
      (xy 1.200462 -0.679494)
      (xy 1.248508 -0.728604)
      (xy 1.333991 -0.795416)
      (xy 1.420481 -0.837758)
      (xy 1.520566 -0.860181)
      (xy 1.631461 -0.867075)
      (xy 1.718811 -0.866259)
    )

    (stroke (width 0.01) (type solid)) (fill solid) (layer "F.SilkS") (tstamp 908d1a56-56a8-41dd-9a79-5d69ea2b0388))
  (fp_poly
    (pts
      (xy 1.937449 -1.488413)
      (xy 2.165128 -1.427681)
      (xy 2.377239 -1.336055)
      (xy 2.447398 -1.296292)
      (xy 2.555932 -1.219221)
      (xy 2.671208 -1.118507)
      (xy 2.782641 -1.004866)
      (xy 2.879647 -0.889018)
      (xy 2.946112 -0.791308)
      (xy 3.045923 -0.585001)
      (xy 3.11415 -0.364759)
      (xy 3.150694 -0.136541)
      (xy 3.155457 0.093698)
      (xy 3.12834 0.32)
      (xy 3.069247 0.536409)
      (xy 2.978077 0.736967)
      (xy 2.971503 0.748509)
      (xy 2.84694 0.927855)
      (xy 2.691596 1.091903)
      (xy 2.512465 1.235367)
      (xy 2.316538 1.352963)
      (xy 2.110807 1.439403)
      (xy 2.023637 1.465024)
      (xy 1.893912 1.490687)
      (xy 1.748397 1.507309)
      (xy 1.602282 1.513928)
      (xy 1.470755 1.509587)
      (xy 1.417299 1.503333)
      (xy 1.177964 1.446757)
      (xy 0.951186 1.353934)
      (xy 0.741335 1.2268)
      (xy 0.669682 1.172122)
      (xy 0.498435 1.00945)
      (xy 0.35804 0.826151)
      (xy 0.249021 0.626239)
      (xy 0.171902 0.41373)
      (xy 0.127209 0.192639)
      (xy 0.118984 0.034606)
      (xy 0.380802 0.034606)
      (xy 0.405936 0.245751)
      (xy 0.467321 0.45069)
      (xy 0.551733 0.623249)
      (xy 0.614924 0.713441)
      (xy 0.701005 0.813314)
      (xy 0.799428 0.912322)
      (xy 0.89965 0.99992)
      (xy 0.991124 1.065561)
      (xy 0.998443 1.069958)
      (xy 1.196064 1.164254)
      (xy 1.404843 1.221992)
      (xy 1.620757 1.242623)
      (xy 1.839786 1.225598)
      (xy 1.956747 1.200863)
      (xy 2.127697 1.140458)
      (xy 2.297418 1.051041)
      (xy 2.454712 0.939843)
      (xy 2.588382 0.814097)
      (xy 2.627915 0.767478)
      (xy 2.745701 0.589023)
      (xy 2.828533 0.398686)
      (xy 2.877095 0.20062)
      (xy 2.892068 -0.001025)
      (xy 2.874137 -0.202096)
      (xy 2.823983 -0.398442)
      (xy 2.74229 -0.585911)
      (xy 2.629741 -0.760353)
      (xy 2.487017 -0.917615)
      (xy 2.330082 -1.043259)
      (xy 2.149405 -1.143654)
      (xy 1.952948 -1.211144)
      (xy 1.746545 -1.245378)
      (xy 1.536028 -1.246007)
      (xy 1.327231 -1.212681)
      (xy 1.125987 -1.14505)
      (xy 1.069661 -1.118866)
      (xy 0.925853 -1.029542)
      (xy 0.786385 -0.909758)
      (xy 0.658542 -0.768022)
      (xy 0.54961 -0.61284)
      (xy 0.466877 -0.452718)
      (xy 0.441544 -0.385589)
      (xy 0.392483 -0.177567)
      (xy 0.380802 0.034606)
      (xy 0.118984 0.034606)
      (xy 0.115464 -0.033018)
      (xy 0.137192 -0.259228)
      (xy 0.192918 -0.481975)
      (xy 0.283167 -0.697244)
      (xy 0.400416 -0.889849)
      (xy 0.528616 -1.042922)
      (xy 0.682877 -1.183446)
      (xy 0.854449 -1.305304)
      (xy 1.034582 -1.402374)
      (xy 1.214524 -1.46854)
      (xy 1.236086 -1.474212)
      (xy 1.465421 -1.512781)
      (xy 1.701711 -1.517147)
      (xy 1.937449 -1.488413)
    )

    (stroke (width 0.01) (type solid)) (fill solid) (layer "F.SilkS") (tstamp 75349767-d8c0-4ae1-93b1-8223d02045a0))
  (fp_poly
    (pts
      (xy -1.345762 -1.496705)
      (xy -1.119275 -1.439275)
      (xy -0.906042 -1.349139)
      (xy -0.709636 -1.228177)
      (xy -0.533628 -1.078271)
      (xy -0.381589 -0.901304)
      (xy -0.257089 -0.699156)
      (xy -0.244249 -0.673459)
      (xy -0.193712 -0.562705)
      (xy -0.156951 -0.461868)
      (xy -0.131999 -0.360933)
      (xy -0.116892 -0.249886)
      (xy -0.109665 -0.118713)
      (xy -0.108257 0.019538)
      (xy -0.109141 0.139418)
      (xy -0.111786 0.22955)
      (xy -0.117274 0.299255)
      (xy -0.126685 0.357855)
      (xy -0.141101 0.414672)
      (xy -0.161488 0.478692)
      (xy -0.25232 0.689619)
      (xy -0.376092 0.885212)
      (xy -0.528345 1.061404)
      (xy -0.704617 1.214128)
      (xy -0.90045 1.339317)
      (xy -1.111382 1.432904)
      (xy -1.253751 1.474692)
      (xy -1.376333 1.496312)
      (xy -1.517661 1.509844)
      (xy -1.661804 1.51454)
      (xy -1.792831 1.50965)
      (xy -1.852036 1.502835)
      (xy -2.065147 1.451615)
      (xy -2.27496 1.365903)
      (xy -2.472932 1.249928)
      (xy -2.650519 1.107922)
      (xy -2.651575 1.106935)
      (xy -2.818861 0.925473)
      (xy -2.952401 0.726943)
      (xy -3.051194 0.51425)
      (xy -3.114239 0.290302)
      (xy -3.140535 0.058003)
      (xy -3.137084 -0.013629)
      (xy -2.862601 -0.013629)
      (xy -2.860389 0.11978)
      (xy -2.848612 0.238052)
      (xy -2.834995 0.302846)
      (xy -2.76038 0.500843)
      (xy -2.653427 0.685299)
      (xy -2.518836 0.850554)
      (xy -2.361307 0.990947)
      (xy -2.185539 1.100816)
      (xy -2.16364 1.111586)
      (xy -2.076119 1.149895)
      (xy -1.986608 1.18332)
      (xy -1.911196 1.20599)
      (xy -1.895231 1.209527)
      (xy -1.827822 1.222939)
      (xy -1.771304 1.234585)
      (xy -1.748692 1.239505)
      (xy -1.699174 1.244004)
      (xy -1.623233 1.243264)
      (xy -1.533045 1.238131)
      (xy -1.440787 1.229448)
      (xy -1.358637 1.218062)
      (xy -1.315852 1.209472)
      (xy -1.145852 1.152534)
      (xy -0.976986 1.06724)
      (xy -0.819642 0.960299)
      (xy -0.684202 0.838415)
      (xy -0.614407 0.756457)
      (xy -0.512259 0.606814)
      (xy -0.439983 0.465157)
      (xy -0.393839 0.320154)
      (xy -0.370085 0.160468)
      (xy -0.364724 0)
      (xy -0.366764 -0.109115)
      (xy -0.372805 -0.192678)
      (xy -0.384761 -0.264156)
      (xy -0.404547 -0.33702)
      (xy -0.418866 -0.380813)
      (xy -0.509318 -0.589261)
      (xy -0.630477 -0.774366)
      (xy -0.780224 -0.93399)
      (xy -0.956439 -1.06599)
      (xy -1.157005 -1.168227)
      (xy -1.223114 -1.193304)
      (xy -1.334844 -1.221816)
      (xy -1.470736 -1.240097)
      (xy -1.617025 -1.247316)
      (xy -1.759944 -1.242644)
      (xy -1.853669 -1.231343)
      (xy -2.041649 -1.180435)
      (xy -2.221627 -1.094685)
      (xy -2.389038 -0.978174)
      (xy -2.539315 -0.834985)
      (xy -2.667892 -0.6692)
      (xy -2.770203 -0.484902)
      (xy -2.815676 -0.371231)
      (xy -2.839862 -0.272479)
      (xy -2.855631 -0.14883)
      (xy -2.862601 -0.013629)
      (xy -3.137084 -0.013629)
      (xy -3.12908 -0.179741)
      (xy -3.118648 -0.248748)
      (xy -3.060541 -0.481714)
      (xy -2.970059 -0.695081)
      (xy -2.845439 -0.892109)
      (xy -2.684913 -1.07606)
      (xy -2.655132 -1.105115)
      (xy -2.474249 -1.256065)
      (xy -2.283837 -1.370769)
      (xy -2.078478 -1.451842)
      (xy -1.852752 -1.501896)
      (xy -1.824219 -1.505919)
      (xy -1.581934 -1.519547)
      (xy -1.345762 -1.496705)
    )

    (stroke (width 0.01) (type solid)) (fill solid) (layer "F.SilkS") (tstamp b50108c3-73ae-47d9-95bc-88669ac22221))
)
