(footprint "Jack_3.5mm_PJ-301CM"
	(version 20240108)
	(generator "pcbnew")
	(generator_version "8.0")
	(layer "F.Cu")
	(descr "PJ-301CM 3.5 mm stereo vertical jack")
	(property "Reference" "REF**"
		(at 0 -5.4 0)
		(layer "F.SilkS")
		(uuid "5946461c-3619-4297-ada8-808db114b5fb")
		(effects
			(font
				(size 0.8 0.8)
				(thickness 0.15)
			)
		)
	)
	(property "Value" "PJ-301CM"
		(at 0 0 0)
		(layer "F.Fab")
		(uuid "3de27c1c-897a-4a6c-b0f7-6b3c6fd91fd1")
		(effects
			(font
				(size 0.8 0.8)
				(thickness 0.15)
			)
		)
	)
	(property "Footprint" ""
		(at 0 0 0)
		(layer "F.Fab")
		(hide yes)
		(uuid "369af5c1-2973-4185-8ab9-69237f10e23d")
		(effects
			(font
				(size 1.27 1.27)
				(thickness 0.15)
			)
		)
	)
	(property "Datasheet" ""
		(at 0 0 0)
		(layer "F.Fab")
		(hide yes)
		(uuid "1479c7a0-62d2-4ad4-afa9-db320c4dc547")
		(effects
			(font
				(size 1.27 1.27)
				(thickness 0.15)
			)
		)
	)
	(property "Description" ""
		(at 0 0 0)
		(layer "F.Fab")
		(hide yes)
		(uuid "75232a1f-4412-4d3f-a5b7-8d37669d969f")
		(effects
			(font
				(size 1.27 1.27)
				(thickness 0.15)
			)
		)
	)
	(attr through_hole)
	(fp_line
		(start -4.1 -4.5)
		(end -4.1 5.6)
		(stroke
			(width 0.127)
			(type solid)
		)
		(layer "F.SilkS")
		(uuid "f01a08c4-d9f1-4838-af18-b59bca81082c")
	)
	(fp_line
		(start -4.1 5.6)
		(end 4.4 5.6)
		(stroke
			(width 0.127)
			(type solid)
		)
		(layer "F.SilkS")
		(uuid "95a9cb1b-c155-4d37-a2b5-cecc3f928209")
	)
	(fp_line
		(start 4.4 -4.5)
		(end -4.1 -4.5)
		(stroke
			(width 0.127)
			(type solid)
		)
		(layer "F.SilkS")
		(uuid "eb8e38cd-dc17-4593-889c-e9f58005f6e7")
	)
	(fp_line
		(start 4.4 5.6)
		(end 4.4 -4.5)
		(stroke
			(width 0.127)
			(type solid)
		)
		(layer "F.SilkS")
		(uuid "44d6780b-0f7d-4066-bfb2-bff50f00afa0")
	)
	(fp_arc
		(start 0.396248 -2.8728)
		(mid 1.636734 -2.398157)
		(end 2.534506 -1.419332)
		(stroke
			(width 0.12)
			(type solid)
		)
		(layer "F.SilkS")
		(uuid "be5139dc-814c-49b0-9344-8ab41ece2f2f")
	)
	(fp_arc
		(start 2.842298 0.58792)
		(mid -1.752336 2.290133)
		(end -1.294044 -2.588202)
		(stroke
			(width 0.12)
			(type solid)
		)
		(layer "F.SilkS")
		(uuid "5bdd29cb-8f55-4095-af05-9d35ec92d17e")
	)
	(fp_circle
		(center 0.01 -0.005)
		(end 1.81 -0.005)
		(stroke
			(width 0.12)
			(type solid)
		)
		(fill none)
		(layer "F.SilkS")
		(uuid "01172b30-4940-4805-b545-a15bc4c1c378")
	)
	(fp_line
		(start -2.2 -3.625)
		(end -0.2 -3.625)
		(stroke
			(width 0.05)
			(type solid)
		)
		(layer "Dwgs.User")
		(uuid "784b6458-3ae8-48f4-9482-731714d7927e")
	)
	(fp_line
		(start -2.2 -3.125)
		(end -2.2 -3.625)
		(stroke
			(width 0.05)
			(type solid)
		)
		(layer "Dwgs.User")
		(uuid "e2c309e4-b8cd-4d42-b61b-673943cf082a")
	)
	(fp_line
		(start -2.2 4.225)
		(end -0.2 4.225)
		(stroke
			(width 0.05)
			(type solid)
		)
		(layer "Dwgs.User")
		(uuid "719303cc-9ddf-4f19-9751-b8db3875f499")
	)
	(fp_line
		(start -2.2 4.725)
		(end -2.2 4.225)
		(stroke
			(width 0.05)
			(type solid)
		)
		(layer "Dwgs.User")
		(uuid "2b670198-954c-4e3b-b1b0-4485bbd2f4ee")
	)
	(fp_line
		(start -1.41 0.39)
		(end 0.41 -1.425)
		(stroke
			(width 0.12)
			(type solid)
		)
		(layer "Dwgs.User")
		(uuid "c71a9527-1416-4f8c-bd3b-16efc74b909a")
	)
	(fp_line
		(start -1.4 -0.465)
		(end -0.45 -1.415)
		(stroke
			(width 0.12)
			(type solid)
		)
		(layer "Dwgs.User")
		(uuid "f6065893-2bef-43f4-ab93-591164560700")
	)
	(fp_line
		(start -1.06 1.005)
		(end 1.02 -1.075)
		(stroke
			(width 0.12)
			(type solid)
		)
		(layer "Dwgs.User")
		(uuid "e75053d0-e7e9-44d0-9f72-d62b6e192cd9")
	)
	(fp_line
		(start -0.57 1.345)
		(end 1.37 -0.595)
		(stroke
			(width 0.12)
			(type solid)
		)
		(layer "Dwgs.User")
		(uuid "d7ab0ff9-7261-48ad-92eb-b63b9921aed9")
	)
	(fp_line
		(start -0.2 -3.625)
		(end -0.2 -3.125)
		(stroke
			(width 0.05)
			(type solid)
		)
		(layer "Dwgs.User")
		(uuid "939bb0a1-244e-4741-90f1-d06027d85c51")
	)
	(fp_line
		(start -0.2 -3.125)
		(end -2.2 -3.125)
		(stroke
			(width 0.05)
			(type solid)
		)
		(layer "Dwgs.User")
		(uuid "a4372ae3-288f-4a9a-96e7-306ddba718f6")
	)
	(fp_line
		(start -0.2 4.225)
		(end -0.2 4.725)
		(stroke
			(width 0.05)
			(type solid)
		)
		(layer "Dwgs.User")
		(uuid "202e566d-5dd9-4e58-8d82-bf96da938851")
	)
	(fp_line
		(start -0.2 4.725)
		(end -2.2 4.725)
		(stroke
			(width 0.05)
			(type solid)
		)
		(layer "Dwgs.User")
		(uuid "0c9e7917-e0a0-46fb-b233-2640231d0e2c")
	)
	(fp_line
		(start 0.1 1.475)
		(end 1.49 0.085)
		(stroke
			(width 0.12)
			(type solid)
		)
		(layer "Dwgs.User")
		(uuid "0a9696ac-1591-4d61-bd70-14ee88d45863")
	)
	(fp_line
		(start 3.025 -2)
		(end 3.025 0)
		(stroke
			(width 0.05)
			(type solid)
		)
		(layer "Dwgs.User")
		(uuid "92832a32-dcb2-4058-8ad9-237ebe5ab0e8")
	)
	(fp_line
		(start 3.025 0)
		(end 3.525 0)
		(stroke
			(width 0.05)
			(type solid)
		)
		(layer "Dwgs.User")
		(uuid "0c83fcb5-bcc7-4f84-8394-d4fc9899e233")
	)
	(fp_line
		(start 3.525 -2)
		(end 3.025 -2)
		(stroke
			(width 0.05)
			(type solid)
		)
		(layer "Dwgs.User")
		(uuid "e584f27e-45dd-4fdd-8c50-c7400e4b2ab2")
	)
	(fp_line
		(start 3.525 0)
		(end 3.525 -2)
		(stroke
			(width 0.05)
			(type solid)
		)
		(layer "Dwgs.User")
		(uuid "3da2a955-efa4-4cba-97bf-5c3895b6ca21")
	)
	(fp_circle
		(center 0 0)
		(end 1.75 0)
		(stroke
			(width 0.05)
			(type solid)
		)
		(fill none)
		(layer "Dwgs.User")
		(uuid "e671ffe9-4ebb-42bd-be8d-cda9a798e138")
	)
	(fp_circle
		(center 0.01 -0.005)
		(end 1.51 -0.005)
		(stroke
			(width 0.12)
			(type solid)
		)
		(fill none)
		(layer "Dwgs.User")
		(uuid "82fa37e3-487a-425b-a154-8aa673cc0b9b")
	)
	(fp_line
		(start -4.3 -4.7)
		(end -4.3 5.8)
		(stroke
			(width 0.05)
			(type solid)
		)
		(layer "F.CrtYd")
		(uuid "1b521835-2349-436c-8ca1-0d0dfe01c54f")
	)
	(fp_line
		(start -4.3 5.8)
		(end 4.6 5.8)
		(stroke
			(width 0.05)
			(type solid)
		)
		(layer "F.CrtYd")
		(uuid "012023c1-75d5-42bb-a5d6-9afa9a06a07a")
	)
	(fp_line
		(start 4.6 -4.7)
		(end -4.3 -4.7)
		(stroke
			(width 0.05)
			(type solid)
		)
		(layer "F.CrtYd")
		(uuid "1a622bb9-7aee-4243-b4ab-f317a8bc32ff")
	)
	(fp_line
		(start 4.6 -4.7)
		(end 4.6 5.8)
		(stroke
			(width 0.05)
			(type solid)
		)
		(layer "F.CrtYd")
		(uuid "6e33aeeb-1b7e-46d7-8f44-ec30e8201196")
	)
	(fp_text user "KEEPOUT"
		(at 0.01 -0.005 0)
		(layer "Cmts.User")
		(uuid "6601d461-d011-4d4b-a61a-f1085c7c1e41")
		(effects
			(font
				(size 0.4 0.4)
				(thickness 0.051)
			)
		)
	)
	(pad "R" thru_hole rect
		(at -1.2 -3.375)
		(size 2.8 1.25)
		(drill oval 2.5 0.8)
		(layers "*.Cu" "*.Mask")
		(remove_unused_layers no)
		(uuid "c47c1013-522e-4afa-9dd5-776b2bbec89a")
	)
	(pad "S" thru_hole rect
		(at 3.275 -1 90)
		(size 2.8 1.25)
		(drill oval 2.5 0.8)
		(layers "*.Cu" "*.Mask")
		(remove_unused_layers no)
		(uuid "56ba8f65-c244-4416-8ed2-b5691db880ab")
	)
	(pad "T" thru_hole rect
		(at -1.2 4.475 180)
		(size 2.8 1.25)
		(drill oval 2.5 0.8)
		(layers "*.Cu" "*.Mask")
		(remove_unused_layers no)
		(uuid "1b0f55f9-5fa5-489c-9db2-e63c29ecdd31")
	)
	(model "${KICAD_USER_3DMODEL_DIR}/AO_tht_3d/PJ-301CM.step"
		(offset
			(xyz -0.4 0.15 10)
		)
		(scale
			(xyz 1 1 1)
		)
		(rotate
			(xyz 0 0 0)
		)
	)
)
