(footprint "Potentiometer_Alpha_16mm_Single_Vertical" (version 20221018) (generator pcbnew)
  (layer "F.Cu")
  (descr "Potentiometer, vertical, Piher PC-16 Single, http://www.piher-nacesa.com/pdf/20-PC16v03.pdf")
  (tags "Potentiometer vertical Piher PC-16 Single")
  (attr through_hole)
  (fp_text reference "REF**" (at 0.5 -10.5) (layer "F.SilkS")
      (effects (font (size 0.8 0.8) (thickness 0.15)))
    (tstamp f883054c-af88-4f2f-853d-a9b800b3539d)
  )
  (fp_text value "Potentiometer_Alpha_16mm_Single_Vertical" (at -4 10.5) (layer "F.Fab")
      (effects (font (size 1 1) (thickness 0.15)))
    (tstamp 5a41b0fb-93b6-432a-b7d9-cd9d12f14ad0)
  )
  (fp_text user "${VALUE}" (at 0 0) (layer "F.SilkS")
      (effects (font (size 0.8 0.8) (thickness 0.15)))
    (tstamp dd839b50-e79e-4c0a-8fbc-57ae9b42d591)
  )
  (fp_text user "${REFERENCE}" (at -18.5 0 90) (layer "F.Fab")
      (effects (font (size 1 1) (thickness 0.15)))
    (tstamp 3f574af1-283f-4cc6-b7eb-584ce684f4e3)
  )
  (fp_line (start -15 -9) (end 9 -9)
    (stroke (width 0.12) (type solid)) (layer "F.SilkS") (tstamp e76d350b-d4f7-4ea0-8bd9-31154b534a8d))
  (fp_line (start -15 -6) (end -15 -9)
    (stroke (width 0.12) (type solid)) (layer "F.SilkS") (tstamp c9a027b6-b1bd-4282-85b9-9c1aaf570832))
  (fp_line (start -15 -1) (end -15 -4)
    (stroke (width 0.12) (type solid)) (layer "F.SilkS") (tstamp 7943268e-3bb2-4191-9f0d-b0c09fbc8a21))
  (fp_line (start -15 4) (end -15 1)
    (stroke (width 0.12) (type solid)) (layer "F.SilkS") (tstamp bcf08698-f9fa-4eed-9e46-aba1292ce721))
  (fp_line (start -15 9) (end -15 6)
    (stroke (width 0.12) (type solid)) (layer "F.SilkS") (tstamp a5757ef1-f80e-493a-99b4-593c8af4ca0f))
  (fp_line (start 9 -9) (end 9 9)
    (stroke (width 0.12) (type solid)) (layer "F.SilkS") (tstamp e7a6a262-cced-44c7-92e9-a4144c47a87f))
  (fp_line (start 9 9) (end -15 9)
    (stroke (width 0.12) (type solid)) (layer "F.SilkS") (tstamp 348141f5-6449-4282-955e-68e5a9be886d))
  (fp_line (start -17.5 -9.5) (end 9.5 -9.5)
    (stroke (width 0.12) (type solid)) (layer "F.CrtYd") (tstamp b8cde4ae-1829-4395-89ae-7ba4805c4f84))
  (fp_line (start -17.5 9.5) (end -17.5 -9.5)
    (stroke (width 0.12) (type solid)) (layer "F.CrtYd") (tstamp 3dd9ed27-73f1-43e0-ae3b-b45e552e1bf8))
  (fp_line (start 9.5 -9.5) (end 9.5 9.5)
    (stroke (width 0.12) (type solid)) (layer "F.CrtYd") (tstamp 12d0ff7e-daff-47ae-9225-183d9d502e8d))
  (fp_line (start 9.5 9.5) (end -17.5 9.5)
    (stroke (width 0.12) (type solid)) (layer "F.CrtYd") (tstamp a252335f-e7f0-4557-b2e2-a5488316e8a4))
  (fp_circle (center 0 0) (end 3 0)
    (stroke (width 0.1) (type solid)) (fill none) (layer "F.Fab") (tstamp aaaa814d-fe26-42a1-a4eb-794e3404cb05))
  (fp_circle (center 0 0) (end 8.45 0)
    (stroke (width 0.12) (type solid)) (fill none) (layer "F.Fab") (tstamp a0db28f7-2cd1-41bc-a59b-65cb933f5420))
  (pad "1" thru_hole circle (at -16 -5) (size 2.34 2.34) (drill 1.3) (layers "*.Cu" "*.Mask") (tstamp 3ce9c77b-5df9-4156-b3e7-a560d01ca099))
  (pad "2" thru_hole circle (at -16 0) (size 2.34 2.34) (drill 1.3) (layers "*.Cu" "*.Mask") (tstamp 8b9a2178-19c5-4a7a-812b-1bf244b2d6be))
  (pad "3" thru_hole circle (at -16 5) (size 2.34 2.34) (drill 1.3) (layers "*.Cu" "*.Mask") (tstamp b0f51d7a-3f45-4c40-9613-2b524ff0cb28))
  (model "${KICAD_USER_3DMODEL_DIR}/AO_tht_3d/RV16AF-41.step"
    (offset (xyz 0 0 0))
    (scale (xyz 1 1 1))
    (rotate (xyz 0 0 90))
  )
)
