(footprint "TO-92_Inline_HandSolder" (version 20211014) (generator pcbnew)
  (layer "F.Cu")
  (tedit 5A282C46)
  (descr "TO-92 leads molded, narrow, drill 0.75mm, handsoldering variant with enlarged pads (see NXP sot054_po.pdf)")
  (tags "to-92 sc-43 sc-43a sot54 PA33 transistor")
  (attr through_hole)
  (fp_text reference "REF**" (at 1.7 -3.8) (layer "F.SilkS")
    (effects (font (size 0.8 0.8) (thickness 0.15)))
    (tstamp 63cd3592-1886-4c8f-80ae-7e197d42a52f)
  )
  (fp_text value "TO-92_Inline_HandSolder" (at 1.27 2.79) (layer "F.Fab")
    (effects (font (size 1 1) (thickness 0.15)))
    (tstamp d35dc2cb-5405-4f49-a932-e42b61bff2ff)
  )
  (fp_text user "${VALUE}" (at 1.4 2.8) (layer "F.SilkS")
    (effects (font (size 0.8 0.8) (thickness 0.15)))
    (tstamp a5904f49-818c-41e6-80cb-3d1bfe59a598)
  )
  (fp_text user "${REFERENCE}" (at 1.27 0) (layer "F.Fab")
    (effects (font (size 1 1) (thickness 0.15)))
    (tstamp 0b5bce11-a7df-4e09-ab53-c0ae844a5bba)
  )
  (fp_line (start -0.53 1.85) (end 3.07 1.85) (layer "F.SilkS") (width 0.12) (tstamp c0dbcfd1-8d05-44bc-bd11-e9e1531b99ba))
  (fp_arc (start 2.05 -2.45) (mid 3.769931 -0.601036) (end 3.078445 1.827684) (layer "F.SilkS") (width 0.12) (tstamp e2b28ef0-ae35-4a37-8de2-e68628666046))
  (fp_arc (start -0.541875 1.841741) (mid -1.247231 -0.581764) (end 0.45 -2.45) (layer "F.SilkS") (width 0.12) (tstamp ee736258-d946-442e-b2a1-d681f4ad66d9))
  (fp_line (start 4 2.01) (end -1.46 2.01) (layer "F.CrtYd") (width 0.05) (tstamp 4231b7f6-55fc-428f-865f-2c0932e248a7))
  (fp_line (start 4 2.01) (end 4 -3.05) (layer "F.CrtYd") (width 0.05) (tstamp 6d97ff3e-30ce-4bdd-a4f7-721280c95c5e))
  (fp_line (start -1.46 -3.05) (end 4 -3.05) (layer "F.CrtYd") (width 0.05) (tstamp d22e6313-3e09-4c28-8da5-154253db1557))
  (fp_line (start -1.46 -3.05) (end -1.46 2.01) (layer "F.CrtYd") (width 0.05) (tstamp f7ae6312-8406-4d27-b5ad-287a2e377b11))
  (fp_line (start -0.5 1.75) (end 3 1.75) (layer "F.Fab") (width 0.1) (tstamp bda8e229-5a67-488a-8d3d-2fd4bbd8a7d6))
  (fp_arc (start -0.483625 1.753625) (mid -1.021221 -0.949055) (end 1.27 -2.48) (layer "F.Fab") (width 0.1) (tstamp 6c18f713-4d27-472d-91de-242ae28221dd))
  (fp_arc (start 1.27 -2.48) (mid 3.561221 -0.949055) (end 3.023625 1.753625) (layer "F.Fab") (width 0.1) (tstamp e96eae4b-6764-48e8-aeba-cf327d739aff))
  (pad "1" thru_hole rect (at 0 0) (size 1.1 1.8) (drill 0.75 (offset 0 0.4)) (layers *.Cu *.Mask) (tstamp 70d16592-6ee9-4a51-97bb-d96fd28d353e))
  (pad "2" thru_hole roundrect (at 1.27 0) (size 1.1 1.8) (drill 0.75 (offset 0 -0.4)) (layers *.Cu *.Mask) (roundrect_rratio 0.25) (tstamp b766a593-8700-4aea-8b0f-3f94e2f6d9c7))
  (pad "3" thru_hole roundrect (at 2.54 0) (size 1.1 1.8) (drill 0.75 (offset 0 0.4)) (layers *.Cu *.Mask) (roundrect_rratio 0.25) (tstamp 69da8651-1e1c-4c77-b857-1303a50eea93))
  (model "${KICAD6_3DMODEL_DIR}/Package_TO_SOT_THT.3dshapes/TO-92.wrl"
    (offset (xyz 0 0 0))
    (scale (xyz 1 1 1))
    (rotate (xyz 0 0 0))
  )
)
