ISO-10303-21;
HEADER;
/* Generated by software containing ST-Developer
 * from STEP Tools, Inc. (www.steptools.com) 
 */
/* OPTION: using custom renumber hook */

FILE_DESCRIPTION(
/* description */ ('STEP AP242',
'CAx-IF Rec.Pracs.---Representation and Presentation of Product Manufa
cturing Information (PMI)---4.0---2014-10-13',
'CAx-IF Rec.Pracs.---3D Tessellated Geometry---0.4---2014-09-14','2;1'),

/* implementation_level */ '2;1');

FILE_NAME(
/* name */ 'Part Studio 1 - V jack 3.5 mm',
/* time_stamp */ '2025-01-01T00:03:20Z',
/* author */ (''),
/* organization */ (''),
/* preprocessor_version */ 'ST-DEVELOPER v20',
/* originating_system */ 'ONSHAPE BY PTC INC, 1.191',
/* authorisation */ '  ');

FILE_SCHEMA (('AP242_MANAGED_MODEL_BASED_3D_ENGINEERING_MIM_LF { 1 0 10303 442 1 1 4 }'));
ENDSEC;

DATA;
#10=SHAPE_REPRESENTATION_RELATIONSHIP('','',#67,#11);
#11=ADVANCED_BREP_SHAPE_REPRESENTATION('',(#65),#109);
#12=PLANE('',#75);
#13=PLANE('',#76);
#14=ORIENTED_EDGE('',*,*,#22,.T.);
#15=ORIENTED_EDGE('',*,*,#23,.F.);
#16=ORIENTED_EDGE('',*,*,#24,.F.);
#17=ORIENTED_EDGE('',*,*,#25,.T.);
#18=ORIENTED_EDGE('',*,*,#22,.F.);
#19=ORIENTED_EDGE('',*,*,#24,.T.);
#20=ORIENTED_EDGE('',*,*,#23,.T.);
#21=ORIENTED_EDGE('',*,*,#25,.F.);
#22=EDGE_CURVE('',#26,#26,#30,.T.);
#23=EDGE_CURVE('',#27,#27,#31,.T.);
#24=EDGE_CURVE('',#28,#28,#32,.T.);
#25=EDGE_CURVE('',#29,#29,#33,.T.);
#26=VERTEX_POINT('',#98);
#27=VERTEX_POINT('',#100);
#28=VERTEX_POINT('',#103);
#29=VERTEX_POINT('',#105);
#30=CIRCLE('',#70,0.0032);
#31=CIRCLE('',#71,0.0032);
#32=CIRCLE('',#73,0.00425);
#33=CIRCLE('',#74,0.00425);
#34=EDGE_LOOP('',(#14));
#35=EDGE_LOOP('',(#15));
#36=EDGE_LOOP('',(#16));
#37=EDGE_LOOP('',(#17));
#38=EDGE_LOOP('',(#18));
#39=EDGE_LOOP('',(#19));
#40=EDGE_LOOP('',(#20));
#41=EDGE_LOOP('',(#21));
#42=FACE_BOUND('',#34,.T.);
#43=FACE_BOUND('',#35,.T.);
#44=FACE_BOUND('',#36,.T.);
#45=FACE_BOUND('',#37,.T.);
#46=FACE_BOUND('',#38,.T.);
#47=FACE_BOUND('',#39,.T.);
#48=FACE_BOUND('',#40,.T.);
#49=FACE_BOUND('',#41,.T.);
#50=CYLINDRICAL_SURFACE('',#69,0.0032);
#51=CYLINDRICAL_SURFACE('',#72,0.00425);
#52=ADVANCED_FACE('',(#42,#43),#50,.F.);
#53=ADVANCED_FACE('',(#44,#45),#51,.T.);
#54=ADVANCED_FACE('',(#46,#47),#12,.T.);
#55=ADVANCED_FACE('',(#48,#49),#13,.F.);
#56=CLOSED_SHELL('',(#52,#53,#54,#55));
#57=STYLED_ITEM('',(#58),#65);
#58=PRESENTATION_STYLE_ASSIGNMENT((#59));
#59=SURFACE_STYLE_USAGE(.BOTH.,#60);
#60=SURFACE_SIDE_STYLE('',(#61));
#61=SURFACE_STYLE_FILL_AREA(#62);
#62=FILL_AREA_STYLE('',(#63));
#63=FILL_AREA_STYLE_COLOUR('',#64);
#64=COLOUR_RGB('',0.701960784313725,0.701960784313725,0.701960784313725);
#65=MANIFOLD_SOLID_BREP('V jack 3.5 mm',#56);
#66=SHAPE_DEFINITION_REPRESENTATION(#114,#67);
#67=SHAPE_REPRESENTATION('V jack 3.5 mm',(#68),#109);
#68=AXIS2_PLACEMENT_3D('',#95,#77,#78);
#69=AXIS2_PLACEMENT_3D('',#96,#79,#80);
#70=AXIS2_PLACEMENT_3D('',#97,#81,#82);
#71=AXIS2_PLACEMENT_3D('',#99,#83,#84);
#72=AXIS2_PLACEMENT_3D('',#101,#85,#86);
#73=AXIS2_PLACEMENT_3D('',#102,#87,#88);
#74=AXIS2_PLACEMENT_3D('',#104,#89,#90);
#75=AXIS2_PLACEMENT_3D('',#106,#91,#92);
#76=AXIS2_PLACEMENT_3D('',#107,#93,#94);
#77=DIRECTION('',(0.,0.,1.));
#78=DIRECTION('',(1.,0.,0.));
#79=DIRECTION('',(0.,0.,-1.));
#80=DIRECTION('',(-1.,0.,0.));
#81=DIRECTION('',(0.,0.,1.));
#82=DIRECTION('',(1.,0.,0.));
#83=DIRECTION('',(0.,0.,1.));
#84=DIRECTION('',(1.,0.,0.));
#85=DIRECTION('',(0.,0.,-1.));
#86=DIRECTION('',(-1.,0.,0.));
#87=DIRECTION('',(0.,0.,1.));
#88=DIRECTION('',(1.,0.,0.));
#89=DIRECTION('',(0.,0.,1.));
#90=DIRECTION('',(1.,0.,0.));
#91=DIRECTION('',(0.,0.,1.));
#92=DIRECTION('',(1.,0.,0.));
#93=DIRECTION('',(0.,0.,1.));
#94=DIRECTION('',(1.,0.,0.));
#95=CARTESIAN_POINT('',(0.,0.,0.));
#96=CARTESIAN_POINT('',(-0.03,1.95943487863576E-19,0.0005));
#97=CARTESIAN_POINT('',(-0.03,1.95943487863576E-19,0.0005));
#98=CARTESIAN_POINT('',(-0.0268,1.95943487863576E-19,0.0005));
#99=CARTESIAN_POINT('',(-0.03,1.95943487863576E-19,0.));
#100=CARTESIAN_POINT('',(-0.0268,1.95943487863576E-19,0.));
#101=CARTESIAN_POINT('',(-0.03,2.60237444818812E-19,0.0005));
#102=CARTESIAN_POINT('',(-0.03,2.60237444818812E-19,0.0005));
#103=CARTESIAN_POINT('',(-0.02575,2.60237444818812E-19,0.0005));
#104=CARTESIAN_POINT('',(-0.03,2.60237444818812E-19,0.));
#105=CARTESIAN_POINT('',(-0.02575,2.60237444818812E-19,0.));
#106=CARTESIAN_POINT('',(-0.014575,0.,0.0005));
#107=CARTESIAN_POINT('',(-0.014575,0.,0.));
#108=MECHANICAL_DESIGN_GEOMETRIC_PRESENTATION_REPRESENTATION('',(#57),#109);
#109=(
GEOMETRIC_REPRESENTATION_CONTEXT(3)
GLOBAL_UNCERTAINTY_ASSIGNED_CONTEXT((#110))
GLOBAL_UNIT_ASSIGNED_CONTEXT((#113,#112,#111))
REPRESENTATION_CONTEXT('V jack 3.5 mm','TOP_LEVEL_ASSEMBLY_PART')
);
#110=UNCERTAINTY_MEASURE_WITH_UNIT(LENGTH_MEASURE(1.E-8),#113,
'DISTANCE_ACCURACY_VALUE','Maximum Tolerance applied to model');
#111=(
NAMED_UNIT(*)
SI_UNIT($,.STERADIAN.)
SOLID_ANGLE_UNIT()
);
#112=(
NAMED_UNIT(*)
PLANE_ANGLE_UNIT()
SI_UNIT($,.RADIAN.)
);
#113=(
LENGTH_UNIT()
NAMED_UNIT(*)
SI_UNIT($,.METRE.)
);
#114=PRODUCT_DEFINITION_SHAPE('','',#115);
#115=PRODUCT_DEFINITION('','',#117,#116);
#116=PRODUCT_DEFINITION_CONTEXT('',#123,'design');
#117=PRODUCT_DEFINITION_FORMATION_WITH_SPECIFIED_SOURCE('','',#119,
 .NOT_KNOWN.);
#118=PRODUCT_RELATED_PRODUCT_CATEGORY('','',(#119));
#119=PRODUCT('V jack 3.5 mm','V jack 3.5 mm','V jack 3.5 mm',(#121));
#120=PRODUCT_CATEGORY('','');
#121=PRODUCT_CONTEXT('',#123,'mechanical');
#122=APPLICATION_PROTOCOL_DEFINITION('international standard',
'ap242_managed_model_based_3d_engineering',2011,#123);
#123=APPLICATION_CONTEXT('managed model based 3d engineering');
ENDSEC;
END-ISO-10303-21;
