ISO-10303-21;
HEADER;
/* Generated by software containing ST-Developer
 * from STEP Tools, Inc. (www.steptools.com) 
 */
/* OPTION: using custom renumber hook */

FILE_DESCRIPTION(
/* description */ ('STEP AP242',
'CAx-IF Rec.Pracs.---Representation and Presentation of Product Manufa
cturing Information (PMI)---4.0---2014-10-13',
'CAx-IF Rec.Pracs.---3D Tessellated Geometry---0.4---2014-09-14','2;1'),

/* implementation_level */ '2;1');

FILE_NAME(
/* name */ '63c36f5a80b6e66a25c4587e',
/* time_stamp */ '2023-01-15T03:13:30+00:00',
/* author */ (''),
/* organization */ (''),
/* preprocessor_version */ 'ST-DEVELOPER v18.102',
/* originating_system */ '  ',
/* authorisation */ '  ');

FILE_SCHEMA (('AP242_MANAGED_MODEL_BASED_3D_ENGINEERING_MIM_LF { 1 0 10303 442 1 1 4 }'));
ENDSEC;

DATA;
#10=SHAPE_REPRESENTATION_RELATIONSHIP('','',#91,#11);
#11=ADVANCED_BREP_SHAPE_REPRESENTATION('',(#89),#155);
#12=PLANE('',#104);
#13=PLANE('',#105);
#14=TOROIDAL_SURFACE('',#96,0.00035,0.00025);
#15=TOROIDAL_SURFACE('',#100,0.00035,0.00025);
#16=ORIENTED_EDGE('',*,*,#28,.F.);
#17=ORIENTED_EDGE('',*,*,#29,.T.);
#18=ORIENTED_EDGE('',*,*,#29,.F.);
#19=ORIENTED_EDGE('',*,*,#30,.T.);
#20=ORIENTED_EDGE('',*,*,#30,.F.);
#21=ORIENTED_EDGE('',*,*,#31,.T.);
#22=ORIENTED_EDGE('',*,*,#31,.F.);
#23=ORIENTED_EDGE('',*,*,#32,.T.);
#24=ORIENTED_EDGE('',*,*,#32,.F.);
#25=ORIENTED_EDGE('',*,*,#33,.T.);
#26=ORIENTED_EDGE('',*,*,#28,.T.);
#27=ORIENTED_EDGE('',*,*,#33,.F.);
#28=EDGE_CURVE('',#34,#34,#40,.T.);
#29=EDGE_CURVE('',#35,#35,#41,.T.);
#30=EDGE_CURVE('',#36,#36,#42,.T.);
#31=EDGE_CURVE('',#37,#37,#43,.T.);
#32=EDGE_CURVE('',#38,#38,#44,.T.);
#33=EDGE_CURVE('',#39,#39,#45,.T.);
#34=VERTEX_POINT('',#137);
#35=VERTEX_POINT('',#139);
#36=VERTEX_POINT('',#142);
#37=VERTEX_POINT('',#145);
#38=VERTEX_POINT('',#148);
#39=VERTEX_POINT('',#151);
#40=CIRCLE('',#94,0.00025);
#41=CIRCLE('',#95,0.00025);
#42=CIRCLE('',#97,0.00025);
#43=CIRCLE('',#99,0.00025);
#44=CIRCLE('',#101,0.00025);
#45=CIRCLE('',#103,0.00025);
#46=EDGE_LOOP('',(#16));
#47=EDGE_LOOP('',(#17));
#48=EDGE_LOOP('',(#18));
#49=EDGE_LOOP('',(#19));
#50=EDGE_LOOP('',(#20));
#51=EDGE_LOOP('',(#21));
#52=EDGE_LOOP('',(#22));
#53=EDGE_LOOP('',(#23));
#54=EDGE_LOOP('',(#24));
#55=EDGE_LOOP('',(#25));
#56=EDGE_LOOP('',(#26));
#57=EDGE_LOOP('',(#27));
#58=FACE_BOUND('',#46,.T.);
#59=FACE_BOUND('',#47,.T.);
#60=FACE_BOUND('',#48,.T.);
#61=FACE_BOUND('',#49,.T.);
#62=FACE_BOUND('',#50,.T.);
#63=FACE_BOUND('',#51,.T.);
#64=FACE_BOUND('',#52,.T.);
#65=FACE_BOUND('',#53,.T.);
#66=FACE_BOUND('',#54,.T.);
#67=FACE_BOUND('',#55,.T.);
#68=FACE_BOUND('',#56,.T.);
#69=FACE_BOUND('',#57,.T.);
#70=CYLINDRICAL_SURFACE('',#93,0.00025);
#71=CYLINDRICAL_SURFACE('',#98,0.00025);
#72=CYLINDRICAL_SURFACE('',#102,0.00025);
#73=ADVANCED_FACE('',(#58,#59),#70,.T.);
#74=ADVANCED_FACE('',(#60,#61),#14,.T.);
#75=ADVANCED_FACE('',(#62,#63),#71,.T.);
#76=ADVANCED_FACE('',(#64,#65),#15,.T.);
#77=ADVANCED_FACE('',(#66,#67),#72,.T.);
#78=ADVANCED_FACE('',(#68),#12,.T.);
#79=ADVANCED_FACE('',(#69),#13,.F.);
#80=CLOSED_SHELL('',(#73,#74,#75,#76,#77,#78,#79));
#81=STYLED_ITEM('',(#82),#89);
#82=PRESENTATION_STYLE_ASSIGNMENT((#83));
#83=SURFACE_STYLE_USAGE(.BOTH.,#84);
#84=SURFACE_SIDE_STYLE('',(#85));
#85=SURFACE_STYLE_FILL_AREA(#86);
#86=FILL_AREA_STYLE('',(#87));
#87=FILL_AREA_STYLE_COLOUR('',#88);
#88=COLOUR_RGB('',0.713725490196078,0.76078431372549,0.8);
#89=MANIFOLD_SOLID_BREP('Part 1',#80);
#90=SHAPE_DEFINITION_REPRESENTATION(#160,#91);
#91=SHAPE_REPRESENTATION('Part 1',(#92),#155);
#92=AXIS2_PLACEMENT_3D('',#134,#106,#107);
#93=AXIS2_PLACEMENT_3D('',#135,#108,#109);
#94=AXIS2_PLACEMENT_3D('',#136,#110,#111);
#95=AXIS2_PLACEMENT_3D('',#138,#112,#113);
#96=AXIS2_PLACEMENT_3D('',#140,#114,#115);
#97=AXIS2_PLACEMENT_3D('',#141,#116,#117);
#98=AXIS2_PLACEMENT_3D('',#143,#118,#119);
#99=AXIS2_PLACEMENT_3D('',#144,#120,#121);
#100=AXIS2_PLACEMENT_3D('',#146,#122,#123);
#101=AXIS2_PLACEMENT_3D('',#147,#124,#125);
#102=AXIS2_PLACEMENT_3D('',#149,#126,#127);
#103=AXIS2_PLACEMENT_3D('',#150,#128,#129);
#104=AXIS2_PLACEMENT_3D('',#152,#130,#131);
#105=AXIS2_PLACEMENT_3D('',#153,#132,#133);
#106=DIRECTION('',(0.,0.,1.));
#107=DIRECTION('',(1.,0.,0.));
#108=DIRECTION('',(-1.22464679914735E-16,0.,-1.));
#109=DIRECTION('',(-1.,0.,1.22464679914735E-16));
#110=DIRECTION('',(-2.4492935982947E-16,0.,-1.));
#111=DIRECTION('',(-1.,0.,2.4492935982947E-16));
#112=DIRECTION('',(-1.22464679914735E-16,0.,-1.));
#113=DIRECTION('',(-1.,0.,1.22464679914735E-16));
#114=DIRECTION('',(0.,1.,0.));
#115=DIRECTION('',(0.,0.,1.));
#116=DIRECTION('',(1.,0.,-1.22464679914735E-16));
#117=DIRECTION('',(-1.22464679914735E-16,0.,-1.));
#118=DIRECTION('',(1.,0.,0.));
#119=DIRECTION('',(0.,0.,-1.));
#120=DIRECTION('',(1.,0.,-1.22464679914735E-16));
#121=DIRECTION('',(-1.22464679914735E-16,0.,-1.));
#122=DIRECTION('',(0.,1.,0.));
#123=DIRECTION('',(0.,0.,1.));
#124=DIRECTION('',(0.,0.,1.));
#125=DIRECTION('',(1.,0.,0.));
#126=DIRECTION('',(-1.22464679914735E-16,0.,1.));
#127=DIRECTION('',(1.,0.,1.22464679914735E-16));
#128=DIRECTION('',(0.,0.,1.));
#129=DIRECTION('',(1.,0.,0.));
#130=DIRECTION('',(-2.4492935982947E-16,0.,-1.));
#131=DIRECTION('',(-1.,0.,2.4492935982947E-16));
#132=DIRECTION('',(0.,0.,1.));
#133=DIRECTION('',(1.,0.,0.));
#134=CARTESIAN_POINT('',(0.,0.,0.));
#135=CARTESIAN_POINT('',(0.00508,1.53080849893419E-20,0.002));
#136=CARTESIAN_POINT('',(0.00508,1.53080849893419E-20,-1.24424114793371E-18));
#137=CARTESIAN_POINT('',(0.00483,1.53080849893419E-20,-1.18300880797634E-18));
#138=CARTESIAN_POINT('',(0.00508,1.53080849893419E-20,0.002));
#139=CARTESIAN_POINT('',(0.00483,1.53080849893419E-20,0.002));
#140=CARTESIAN_POINT('',(0.00473,1.53080849893419E-20,0.002));
#141=CARTESIAN_POINT('',(0.00473,1.53080849893419E-20,0.00235));
#142=CARTESIAN_POINT('',(0.00473,1.53080849893419E-20,0.0021));
#143=CARTESIAN_POINT('',(-0.00473,1.53080849893419E-20,0.00235));
#144=CARTESIAN_POINT('',(-0.00473,1.53080849893419E-20,0.00235));
#145=CARTESIAN_POINT('',(-0.00473,1.53080849893419E-20,0.0021));
#146=CARTESIAN_POINT('',(-0.00473,1.53080849893419E-20,0.002));
#147=CARTESIAN_POINT('',(-0.00508,1.53080849893419E-20,0.002));
#148=CARTESIAN_POINT('',(-0.00483,1.53080849893419E-20,0.002));
#149=CARTESIAN_POINT('',(-0.00508,1.53080849893419E-20,0.));
#150=CARTESIAN_POINT('',(-0.00508,1.53080849893419E-20,0.));
#151=CARTESIAN_POINT('',(-0.00483,1.53080849893419E-20,0.));
#152=CARTESIAN_POINT('',(0.00508,0.,-1.24424114793371E-18));
#153=CARTESIAN_POINT('',(-0.00508,0.,0.));
#154=MECHANICAL_DESIGN_GEOMETRIC_PRESENTATION_REPRESENTATION('',(#81),#155);
#155=(
GEOMETRIC_REPRESENTATION_CONTEXT(3)
GLOBAL_UNCERTAINTY_ASSIGNED_CONTEXT((#156))
GLOBAL_UNIT_ASSIGNED_CONTEXT((#159,#158,#157))
REPRESENTATION_CONTEXT('Part 1','TOP_LEVEL_ASSEMBLY_PART')
);
#156=UNCERTAINTY_MEASURE_WITH_UNIT(LENGTH_MEASURE(5.E-6),#159,
'DISTANCE_ACCURACY_VALUE','Maximum Tolerance applied to model');
#157=(
NAMED_UNIT(*)
SI_UNIT($,.STERADIAN.)
SOLID_ANGLE_UNIT()
);
#158=(
NAMED_UNIT(*)
PLANE_ANGLE_UNIT()
SI_UNIT($,.RADIAN.)
);
#159=(
LENGTH_UNIT()
NAMED_UNIT(*)
SI_UNIT($,.METRE.)
);
#160=PRODUCT_DEFINITION_SHAPE('','',#161);
#161=PRODUCT_DEFINITION('','',#163,#162);
#162=PRODUCT_DEFINITION_CONTEXT('',#169,'design');
#163=PRODUCT_DEFINITION_FORMATION_WITH_SPECIFIED_SOURCE('','',#165,
 .NOT_KNOWN.);
#164=PRODUCT_RELATED_PRODUCT_CATEGORY('','',(#165));
#165=PRODUCT('Part 1','Part 1','Part 1',(#167));
#166=PRODUCT_CATEGORY('','');
#167=PRODUCT_CONTEXT('',#169,'mechanical');
#168=APPLICATION_PROTOCOL_DEFINITION('international standard',
'ap242_managed_model_based_3d_engineering',2011,#169);
#169=APPLICATION_CONTEXT('managed model based 3d engineering');
ENDSEC;
END-ISO-10303-21;
